19

12 4
23
2 1
10 1
0 1
5 1
10 2
5 3
0 2
7 0
5 3
6 1
10 1
7 1
9 2
0 2
11 3
10 0
10 0
7 3
6 0
4 0
3 2
6 2
1 2
31 15

11 5
22
4 4
4 4
8 4
5 0
9 2
2 1
10 4
2 3
3 3
8 4
9 1
3 4
1 1
7 4
10 4
2 0
1 0
7 3
9 2
7 0
1 1
5 1
5 4

10 9
19
5 5
2 3
5 1
8 3
1 1
7 6
1 7
0 7
8 7
0 4
3 5
8 0
0 0
1 8
6 4
8 2
5 7
5 4
5 1
36 34

10 5
19
2 4
8 4
9 3
7 0
2 3
2 2
8 3
1 0
4 0
1 0
6 3
0 2
7 0
0 2
9 0
3 0
2 4
8 3
8 2
41 29

10 4
22
3 1
5 3
8 2
1 1
9 1
0 1
2 1
8 3
3 0
5 0
8 3
9 1
4 2
4 3
3 0
0 0
7 0
2 2
6 3
7 2
2 3
9 2
11 4

12 11
22
10 5
11 5
9 2
5 1
11 1
3 9
4 7
2 0
2 2
8 1
5 3
8 7
3 1
8 1
11 2
0 0
1 5
1 1
5 5
1 3
5 8
0 0
14 3

5 7
19
4 2
0 0
3 2
0 0
4 1
3 2
0 3
0 0
2 1
3 6
4 2
1 1
0 4
2 2
3 6
1 2
4 3
4 3
2 5
3 3

6 4
19
3 1
1 3
5 3
4 1
0 0
3 3
2 1
4 1
5 1
0 1
2 0
1 3
2 3
4 0
2 1
4 1
1 0
2 1
1 3
5 4

5 11
20
2 3
4 8
2 3
2 6
3 7
1 2
1 6
4 2
0 8
2 5
4 7
1 3
0 7
1 1
4 8
3 9
3 0
3 3
1 9
1 5
29 10

6 9
20
3 5
3 7
5 5
4 7
2 0
5 5
0 3
4 5
0 7
5 8
2 1
5 4
0 1
1 5
5 4
0 8
1 4
2 0
3 2
0 2
38 37

6 4
18
1 3
3 1
3 2
3 1
5 2
5 1
0 2
1 2
4 1
0 1
0 1
4 1
4 1
3 1
0 3
5 3
5 3
4 1
3 2

11 4
23
4 2
10 2
2 1
2 3
6 0
6 1
6 0
10 1
8 1
5 1
1 2
7 0
1 1
4 3
0 0
7 3
2 2
10 2
2 1
10 1
1 1
5 3
3 0
27 22

4 11
18
0 7
2 5
3 6
0 10
2 1
1 3
1 9
2 9
2 1
3 6
0 0
1 0
1 7
2 1
3 5
3 0
3 4
2 8
21 13

9 10
19
7 8
8 2
7 9
1 7
8 5
5 4
3 2
0 4
0 9
4 5
3 2
7 9
0 8
4 7
4 3
1 0
0 7
8 8
2 2
25 3

8 9
17
3 2
6 8
4 1
7 1
3 1
3 5
0 4
7 7
5 1
2 5
1 6
3 1
4 2
2 6
4 0
4 7
1 1
31 12

6 11
20
2 8
3 2
1 5
4 4
3 7
0 6
5 8
5 4
0 9
4 4
1 6
2 0
3 4
3 7
1 10
5 10
3 6
0 6
4 8
1 0
17 2

8 7
22
7 2
1 6
5 0
6 0
7 1
6 4
5 4
6 5
7 4
0 0
5 2
4 0
4 5
3 2
5 0
2 5
3 2
5 5
7 5
5 2
3 0
5 2
42 40

9 4
18
2 2
2 1
1 1
0 0
1 3
4 2
0 3
6 3
6 0
2 2
3 2
0 0
4 1
7 2
0 0
8 1
8 2
1 2
8 4

6 6
23
5 1
0 3
5 3
5 4
2 5
5 4
2 0
3 0
2 2
5 4
3 3
4 2
5 2
0 2
3 0
2 2
2 1
4 4
0 4
1 2
1 5
0 0
5 1
18 4
