19

7 9
19
1 0
1 7
1 2
2 5
4 0
0 8
2 0
3 6
0 3
0 6
1 8
5 3
3 3
6 2
4 3
2 3
6 7
3 6
5 1
38 1

11 12
22
0 11
4 5
9 9
10 11
2 1
6 6
9 2
1 5
2 6
2 2
9 2
7 7
8 7
3 10
5 0
5 11
9 5
8 6
6 6
7 0
7 10
1 1
8 8

8 6
22
5 2
3 1
6 0
5 3
1 3
3 0
0 4
1 4
3 1
2 3
4 1
4 0
1 3
2 0
0 3
3 4
2 0
0 0
0 1
2 2
2 3
1 4
35 4

8 12
23
0 2
1 2
5 1
2 5
4 11
5 0
1 0
1 3
1 10
5 4
5 6
3 6
5 8
4 11
7 9
5 10
5 3
7 1
3 0
7 8
4 6
5 9
6 8
50 13

9 4
23
5 0
3 1
0 1
2 0
7 1
7 1
8 1
4 1
6 3
1 3
7 3
1 0
7 1
8 0
8 0
3 3
0 0
0 1
4 0
4 1
1 3
8 2
5 0
18 14

12 11
20
5 5
0 9
4 8
2 10
10 4
10 4
5 1
6 10
2 0
4 3
3 5
5 3
10 7
10 9
3 3
10 1
9 10
3 9
4 3
4 9
43 22

4 5
20
1 1
0 4
1 3
0 2
3 4
3 3
2 4
3 1
3 2
0 3
2 3
0 4
0 0
1 3
1 1
2 0
0 4
3 0
3 1
0 2
33 33

10 9
22
3 4
8 5
7 5
3 6
6 5
3 0
7 8
2 1
7 6
2 5
5 0
4 0
8 3
2 3
3 6
5 0
1 8
5 1
5 3
7 3
4 5
5 3
18 5

12 8
23
8 6
5 6
7 4
2 3
7 7
7 0
9 6
3 0
10 7
6 7
4 1
9 6
4 0
8 0
7 2
9 3
9 7
7 6
7 4
1 2
1 1
0 5
11 6
14 2

5 4
22
4 2
3 3
1 1
4 3
3 3
0 2
3 3
0 1
3 0
1 1
1 3
0 0
4 1
0 2
1 1
3 3
3 1
2 3
3 1
2 3
3 2
0 3
50 12

11 8
17
0 4
1 3
10 5
5 4
3 0
5 5
7 3
2 7
6 5
10 2
4 0
7 4
8 7
8 7
2 5
5 3
3 1
25 23

4 11
21
2 7
1 6
1 3
2 9
2 3
2 1
1 0
0 1
2 3
3 2
2 5
0 4
0 10
3 1
2 10
1 9
0 6
0 2
0 4
3 0
2 1
47 37

12 8
18
1 1
3 6
7 3
1 5
6 2
9 0
9 5
8 6
11 4
7 3
1 2
7 5
8 5
11 5
11 3
10 2
8 3
11 0
36 19

8 12
22
1 10
2 6
4 7
7 2
1 2
7 10
3 5
2 2
7 8
7 11
5 5
1 3
3 5
6 0
0 1
5 7
7 4
0 7
5 2
7 4
7 5
0 4
4 4

10 10
19
8 3
1 2
1 0
7 7
8 2
8 3
8 1
1 3
9 3
6 4
1 5
6 5
8 9
9 0
9 5
1 0
2 5
5 1
0 1
25 23

9 4
21
7 3
3 1
7 2
2 2
2 3
4 0
2 3
7 0
1 0
8 3
8 0
7 3
6 0
6 0
2 1
2 3
3 1
8 1
5 0
5 1
6 1
37 35

12 9
20
1 7
0 8
6 7
6 8
7 7
8 6
7 2
9 4
0 5
2 8
4 4
4 1
5 5
4 5
1 2
5 5
10 5
4 7
4 2
3 8
49 5

8 8
19
2 5
2 6
1 0
1 4
7 5
0 6
3 6
3 2
6 1
3 2
2 6
0 5
6 1
6 4
7 7
2 7
1 2
1 4
1 6
49 39

5 6
20
2 0
1 5
0 5
3 5
1 4
0 2
4 5
4 2
1 0
1 4
1 2
2 5
1 3
4 1
4 2
4 3
2 5
0 3
2 0
2 0
45 26
